27;1;414;.;.;.;.;440;S;.;S
28;2;432;.;.;.;.;440;S;.;S
29;3;364;.;.;.;.;440;S;.;S
30;4;363;.;.;.;.;441;S;.;S
31;5;385;.;.;.;.;441;S;.;S
32;6;415;.;.;.;.;441;S;.;S
33;7;440;.;.;.;.;429;S;.;S
34;8;440;.;.;.;.;429;S;.;S
35;9;312;.;.;.;.;174;S;.;S
36;10;312;.;.;.;.;239;S;.;S
37;11;312;.;.;.;.;384;S;.;S
38;12;312;.;.;.;.;379;S;.;S
39;13;312;.;.;.;.;388;S;.;S
40;14;312;.;.;.;.;387;S;.;S
41;15;267;.;.;.;.;174;S;.;S
42;16;267;.;.;.;.;239;S;.;S
43;17;267;.;.;.;.;384;S;.;S
44;18;267;.;.;.;.;379;S;.;S
45;19;267;.;.;.;.;388;S;.;S
46;20;267;.;.;.;.;387;S;.;S
47;21;268;.;.;.;.;174;S;.;S
48;22;268;.;.;.;.;239;S;.;S
49;23;268;.;.;.;.;384;S;.;S
50;24;268;.;.;.;.;379;S;.;S
51;25;268;.;.;.;.;388;S;.;S
52;26;268;.;.;.;.;387;S;.;S
53;27;415;.;254;.;.;.;S;.;R
54;28;233;.;234;.;.;.;S;.;R
55;29;240;.;234;.;.;.;S;.;R
56;30;259;.;E1;175;.;.;M;.;R
57;30;0;E1;.;.;.;174;.;.;.
58;31;377;.;E1;.;E2;.;M;.;R
62;31;0;E2;E3;.;E4;.;.;.;.
61;31;0;E1;210;240;.;.;.;.;.
59;31;0;E4;210;23;.;.;.;.;.
60;31;0;E3;210;233;.;.;.;.;.
63;32;323;.;210;.;.;.;S;.;R
64;33;326;.;210;.;.;.;S;.;R
65;34;327;.;210;.;.;.;S;.;R
66;35;431;.;387;.;E1;.;M;.;R
104;35;0;E1;M1;.;388;.;.;.;.
15;35;0;M1;383;.;502;.;.;.;.
67;36;174;.;.;.;.;259;S;.;R
68;37;314;.;E1;.;E2;.;M;.;R
73;37;0;E2;E4;E5;.;.;.;.;.
71;37;0;E3;.;.;.;240;.;.;.
72;37;0;E1;234;E3;.;.;.;.;.
69;37;0;E5;27;168;.;.;.;.;.
70;37;0;E4;.;.;.;23;.;.;.
74;38;23;.;.;.;.;314;S;.;R
75;39;365;.;175;.;.;.;S;.;R
76;40;380;.;.;.;.;370;S;.;R
77;41;278;.;175;.;.;.;S;.;R
78;42;360;.;175;.;.;.;S;.;R
79;43;381;.;175;.;.;.;S;.;R
80;44;371;.;210;.;.;.;S;.;R
81;45;372;.;210;.;.;.;S;.;R
82;46;373;.;210;.;.;.;S;.;R
83;47;302;.;175;.;.;.;S;.;R
84;48;427;.;E1;.;E2;.;M;.;R
88;48;0;E1;388;.;387;.;.;.;.
86;48;0;E3;352;.;321;.;.;.;.
87;48;0;E2;E3;.;E4;.;.;.;.
16;48;0;M1;383;.;502;.;.;.;.
85;48;0;E4;382;.;M1;.;.;.;.
89;49;314;.;.;.;.;233;S;.;S
90;50;321;.;.;.;.;388;S;.;S
91;51;384;.;174;.;.;.;S;.;S
92;52;383;.;.;.;.;174;S;.;S
93;53;387;.;.;.;.;174;S;.;S
94;54;388;.;.;.;.;174;S;.;S
95;55;239;.;.;.;.;383;S;.;S
96;56;239;.;.;.;.;388;S;.;S
97;57;267;.;.;.;.;431;S;.;S
98;58;268;.;.;.;.;431;S;.;S
99;59;312;.;.;.;.;431;S;.;S
100;60;383;.;.;.;.;387;S;.;S
101;61;383;.;.;.;.;388;S;.;S
102;62;384;.;.;.;.;387;S;.;S
103;63;448;.;219;.;.;.;S;.;R
105;64;457;.;387;.;388;.;S;.;S
106;65;458;.;387;.;388;.;S;.;S
1;66;239;.;174;.;.;.;S;.;S
17;68;469;.;379;.;.;.;S;.;R
18;69;471;.;320;.;.;.;S;.;R
19;70;479;.;449;.;.;.;S;.;R
20;72;469;.;379;.;.;.;S;.;R
21;73;471;.;320;.;.;.;S;.;R
11;74;502;.;.;.;.;174;S;.;S
12;75;239;.;.;.;.;502;S;.;S
13;76;502;.;.;.;.;387;S;.;S
14;77;502;.;.;.;.;388;S;.;S
2;78;506;.;E1;E2;.;.;M;.;R
10;78;0;E222;352;.;502;.;M;.;R
9;78;0;E221;387;.;388;.;M;.;R
8;78;0;E22;E221;.;E222;.;M;.;R
7;78;0;E21;267;.;268;.;M;.;R
6;78;0;E12;312;.;383;.;M;.;R
5;78;0;E11;304;.;365;.;M;.;R
4;78;0;E2;E21;.;E22;.;M;.;R
3;78;0;E1;E11;.;E12;.;M;.;R
22;79;239;.;.;.;.;336;S;.;S
23;80;336;.;.;.;.;388;S;.;S
24;81;336;.;.;.;.;502;S;.;S
25;82;336;.;.;.;.;383;S;.;S
26;83;502;.;.;.;.;383;S;.;S
107;84;525;.;468;.;469;.;S;.;S
108;85;468;.;E1;.;E2;.;M;.;R
109;85;0;E1;502;.;312;.;.;.;.
110;85;0;E2;E3;.;E4;.;.;.;.
111;85;0;E3;383;.;267;.;.;.;.
112;85;0;E4;E5;.;E6;.;.;.;.
113;85;0;E5;268;.;352;.;.;.;.
114;85;0;E6;387;.;388;.;.;.;.